{
    "classes": [
        {
            "type": "fighter",
            "features": ["fighting style"],
            "proficiencies": {
                "weaponProficiencies": ["simple weapons"],
                "armorProficiences": ["all"],
                "toolsProficiences": ["none"]
            },
            "skills": [
                "acrobatics",
                "animal handling",
                "athletics",
                "history",
                "insight",
                "intimidation",
                "perception",
                "survival"
            ],
            "preferedStats": [
                "strength",
                "dexterity",
                "constitution",
                "intelligence"
            ]
        }
    ]
}